{id: "jst_aeon_dev@aeolix.eu", desc: "Notification.JSt.Prod-bhwtct126ig0", ip: "aeon.atosresearch.eu:3000", subkey: "Notification-85579437-queue", _id: "5a33865a53d1a200131215f8"}
aeolix.component.ts?1fe6:277 Subscriber: Notification.JSt.Prod-bhwtct126ig0, Content: {"notificationContentType":"SUBSCRIPTION_CONFIRMATION","topicType":"ETA","notificationPayLoad":[{"scheduledTime":"2017-12-15T08:00:00.0000000+01:00","estimatedTime":"2017-12-15T08:00:00.0000000+01:00","relatedTime":"2017-12-15T08:23:23.2389274+00:00","uniqSeqId":"50002006-f08a-452d-8228-a84a008a62cb","info":"Confirmation","scemid":"Q4PXTZF2QL"}],"subscriptionID":"b5f5417c53034192a059a84a008a62e3"}
aeolix.component.ts?1fe6:277 Subscriber: Notification.JSt.Prod-bhwtct126ig0, Content: {"notificationContentType":"SUBSCRIPTION_CONFIRMATION","topicType":"ETA","notificationPayLoad":[{"scheduledTime":"2017-12-15T09:43:10.0000000+01:00","estimatedTime":"2017-12-15T09:38:15.0000000+01:00","relatedTime":"2017-12-15T08:23:23.2389274+00:00","uniqSeqId":"396b05dd-d1de-41fe-a4ba-a84a008a64ef","info":"Confirmation","scemid":"CKRGE33S5Q"}],"subscriptionID":"4a77d7f45fb04670a454a84a008a6506"}
aeolix.component.ts?1fe6:277 Subscriber: Notification.JSt.Prod-bhwtct126ig0, Content: {"notificationContentType":"SUBSCRIPTION_CONFIRMATION","topicType":"ETA","notificationPayLoad":[{"scheduledTime":"2017-12-15T09:02:50.0000000+01:00","estimatedTime":"2017-12-15T09:02:15.0000000+01:00","relatedTime":"2017-12-15T08:23:23.2389274+00:00","uniqSeqId":"98d2a7a7-722b-4553-8420-a84a008a62ff","info":"Confirmation","scemid":"CIPC8SM2XS"}],"subscriptionID":"25917633b6bf4abdbb1da84a008a6311"}
aeolix.component.ts?1fe6:277 Subscriber: Notification.JSt.Prod-bhwtct126ig0, Content: {"notificationContentType":"SUBSCRIPTION_CONFIRMATION","topicType":"ETA","notificationPayLoad":[{"scheduledTime":"2017-12-15T10:18:20.0000000+01:00","estimatedTime":"2017-12-15T10:18:33.0000000+01:00","relatedTime":"2017-12-15T08:23:23.2389274+00:00","uniqSeqId":"07128cb3-f353-43f7-ad48-a84a008a6329","info":"Confirmation","scemid":"MBS87OGQGZ"}],"subscriptionID":"4f3eace0dcd74486842aa84a008a633c"}
aeolix.component.ts?1fe6:277 Subscriber: Notification.JSt.Prod-bhwtct126ig0, Content: {"notificationContentType":"SUBSCRIPTION_CONFIRMATION","topicType":"ETA","notificationPayLoad":[{"scheduledTime":"2017-12-15T13:10:10.0000000+01:00","estimatedTime":"2017-12-15T13:06:56.0000000+01:00","relatedTime":"2017-12-15T08:23:23.2389274+00:00","uniqSeqId":"59668fd2-f094-4bb8-9b72-a84a008a636b","info":"Confirmation","scemid":"ZB6LXRBPAS"}],"subscriptionID":"6c9bf40a7d944a89ab4da84a008a637f"}
aeolix.component.ts?1fe6:277 Subscriber: Notification.JSt.Prod-bhwtct126ig0, Content: {"notificationContentType":"SUBSCRIPTION_CONFIRMATION","topicType":"ETA","notificationPayLoad":[{"scheduledTime":"2017-12-15T11:09:10.0000000+01:00","estimatedTime":"2017-12-15T11:03:18.0000000+01:00","relatedTime":"2017-12-15T08:23:23.2389274+00:00","uniqSeqId":"1cabd7d2-9757-45ac-b44a-a84a008a6519","info":"Confirmation","scemid":"T7V79NJUOB"}],"subscriptionID":"fbcba9a2af754fe8b65da84a008a6535"}
aeolix.component.ts?1fe6:277 Subscriber: Notification.JSt.Prod-bhwtct126ig0, Content: {"notificationContentType":"SUBSCRIPTION_CONFIRMATION","topicType":"ETA","notificationPayLoad":[{"scheduledTime":"2017-12-15T13:48:00.0000000+01:00","estimatedTime":"2017-12-15T13:48:55.0000000+01:00","relatedTime":"2017-12-15T08:23:23.2389274+00:00","uniqSeqId":"e0b39f8e-a1e8-4b7c-be59-a84a008a6379","info":"Confirmation","scemid":"9MQHE44U8V"}],"subscriptionID":"86d7a0aeba864932acd7a84a008a638b"}
aeolix.component.ts?1fe6:277 Subscriber: Notification.JSt.Prod-bhwtct126ig0, Content: {"notificationContentType":"SUBSCRIPTION_CONFIRMATION","topicType":"ETA","notificationPayLoad":[{"scheduledTime":"2017-12-15T12:04:30.0000000+01:00","estimatedTime":"2017-12-15T12:01:47.0000000+01:00","relatedTime":"2017-12-15T08:23:23.2389274+00:00","uniqSeqId":"a399c891-211b-4481-b56f-a84a008a652c","info":"Confirmation","scemid":"ML3S23QGGP"}],"subscriptionID":"4b3ad9c01ba14af188b4a84a008a6556"}
aeolix.component.ts?1fe6:277 Subscriber: Notification.JSt.Prod-bhwtct126ig0, Content: {"notificationContentType":"SUBSCRIPTION_CONFIRMATION","topicType":"ETA","notificationPayLoad":[{"scheduledTime":"2017-12-15T14:20:40.0000000+01:00","estimatedTime":"2017-12-15T14:22:43.0000000+01:00","relatedTime":"2017-12-15T08:23:23.2389274+00:00","uniqSeqId":"d0a9489a-3c27-40ff-b553-a84a008a6564","info":"Confirmation","scemid":"AQVQSR6KZD"}],"subscriptionID":"1b20f3e87e5843e4bf80a84a008a6580"}
aeolix.component.ts?1fe6:277 Subscriber: Notification.JSt.Prod-bhwtct126ig0, Content: {"notificationContentType":"SUBSCRIPTION_CONFIRMATION","topicType":"ETA","notificationPayLoad":[{"scheduledTime":"2017-12-15T14:39:00.0000000+01:00","estimatedTime":"2017-12-15T14:41:10.0000000+01:00","relatedTime":"2017-12-15T08:23:23.2389274+00:00","uniqSeqId":"5a18cb96-e6e2-4631-9b2c-a84a008a657c","info":"Confirmation","scemid":"C4BJ1SFUJ7"}],"subscriptionID":"ee538e18d7294f1d89d4a84a008a6598"}
aeolix.component.ts?1fe6:277 Subscriber: Notification.JSt.Prod-bhwtct126ig0, Content: {"notificationContentType":"SUBSCRIPTION_CONFIRMATION","topicType":"ETA","notificationPayLoad":[{"scheduledTime":"2017-12-15T15:22:40.0000000+01:00","estimatedTime":"2017-12-15T15:27:31.0000000+01:00","relatedTime":"2017-12-15T08:23:23.2389274+00:00","uniqSeqId":"7cf65609-cc7a-4103-9c0e-a84a008a6598","info":"Confirmation","scemid":"9FJ3S4I913"}],"subscriptionID":"ff0ee48ee9c44c1cb663a84a008a65be"}
aeolix.component.ts?1fe6:277 Subscriber: Notification.JSt.Prod-bhwtct126ig0, Content: {"notificationContentType":"SUBSCRIPTION_CONFIRMATION","topicType":"ETA","notificationPayLoad":[{"scheduledTime":"2017-12-15T14:56:30.0000000+01:00","estimatedTime":"2017-12-15T14:59:13.0000000+01:00","relatedTime":"2017-12-15T08:23:23.2389274+00:00","uniqSeqId":"539a8e91-9a41-44d2-a78f-a84a008a63a7","info":"Confirmation","scemid":"BZ6AM5D5RP"}],"subscriptionID":"2451e855f1934ef29a16a84a008a63c4"}
aeolix.component.ts?1fe6:277 Subscriber: Notification.JSt.Prod-bhwtct126ig0, Content: {"notificationContentType":"SUBSCRIPTION_CONFIRMATION","topicType":"ETA","notificationPayLoad":[{"scheduledTime":"2017-12-15T08:34:20.0000000+01:00","estimatedTime":"2017-12-15T08:32:38.0000000+01:00","relatedTime":"2017-12-15T08:23:23.2389274+00:00","uniqSeqId":"bc1504d8-d75f-4f77-88d9-a84a008a64c0","info":"Confirmation","scemid":"YHBWEJJPI1"}],"subscriptionID":"2b7e535c217c42549c6fa84a008a64d8"}
aeolix.component.ts?1fe6:277 Subscriber: Notification.JSt.Prod-bhwtct126ig0, Content: {"notificationContentType":"SUBSCRIPTION_CONFIRMATION","topicType":"ETA","notificationPayLoad":[{"scheduledTime":"2017-12-15T17:33:40.0000000+01:00","estimatedTime":"2017-12-15T17:31:24.0000000+01:00","relatedTime":"2017-12-15T08:23:23.2389274+00:00","uniqSeqId":"ea004ae4-32dc-449d-b95e-a84a008a63e9","info":"Confirmation","scemid":"RDZHODMMIX"}],"subscriptionID":"d14ce9d1165f42359fe2a84a008a63fc"}
aeolix.component.ts?1fe6:277 Subscriber: Notification.JSt.Prod-bhwtct126ig0, Content: {"notificationContentType":"SUBSCRIPTION_CONFIRMATION","topicType":"ETA","notificationPayLoad":[{"scheduledTime":"2017-12-15T16:56:00.0000000+01:00","estimatedTime":"2017-12-15T16:55:10.0000000+01:00","relatedTime":"2017-12-15T08:23:23.2389274+00:00","uniqSeqId":"d0c300c2-0843-4b91-99c2-a84a008a65c2","info":"Confirmation","scemid":"3JH5S6KD7D"}],"subscriptionID":"81e82957cdb3450caae8a84a008a65f1"}
aeolix.component.ts?1fe6:277 Subscriber: Notification.JSt.Prod-bhwtct126ig0, Content: {"notificationContentType":"SUBSCRIPTION_CONFIRMATION","topicType":"ETA","notificationPayLoad":[{"scheduledTime":"2017-12-15T12:36:10.0000000+01:00","estimatedTime":"2017-12-15T12:35:05.0000000+01:00","relatedTime":"2017-12-15T08:23:23.2389274+00:00","uniqSeqId":"4f19419b-aa4e-403d-8445-a84a008a653a","info":"Confirmation","scemid":"FKUJKCIH9J"}],"subscriptionID":"ad9ec5b661a440e2924ea84a008a656d"}
aeolix.component.ts?1fe6:277 Subscriber: Notification.JSt.Prod-bhwtct126ig0, Content: {"notificationContentType":"SUBSCRIPTION_CONFIRMATION","topicType":"ETA","notificationPayLoad":[{"scheduledTime":"2017-12-15T16:32:10.0000000+01:00","estimatedTime":"2017-12-15T15:52:29.0000000+01:00","relatedTime":"2017-12-15T08:23:23.2389274+00:00","uniqSeqId":"17e96ef6-80a3-47f8-97da-a84a008a65b8","info":"Confirmation","scemid":"U3SZY7RLM1"}],"subscriptionID":"8d83fe3009e842e3872ca84a008a65e3"}
aeolix.component.ts?1fe6:277 Subscriber: Notification.JSt.Prod-bhwtct126ig0, Content: {"notificationContentType":"STOP_APPROACHING","topicType":"ETA","notificationPayLoad":[{"coordinate":{"locationX":8.612799314,"locationY":49.815962616},"timeStamp":"2017-12-15T08:01:49.0000000+01:00","scemid":"YHBWEJJPI1"}],"subscriptionID":"2b7e535c217c42549c6fa84a008a64d8"}
aeolix.component.ts?1fe6:277 Subscriber: Notification.JSt.Prod-bhwtct126ig0, Content: {"notificationContentType":"ETA_INFO","topicType":"ETA","notificationPayLoad":[{"scheduledTime":"2017-12-15T09:43:10.0000000+01:00","estimatedTime":"2017-12-15T09:38:14.0000000+01:00","relatedTime":"2017-12-15T08:01:49.0000000+01:00","uniqSeqId":"e8547a7c-3443-4696-97a9-a84a008a749b","info":"PositionEvent","scemid":"CKRGE33S5Q"}],"subscriptionID":"4a77d7f45fb04670a454a84a008a6506"}
aeolix.component.ts?1fe6:277 Subscriber: Notification.JSt.Prod-bhwtct126ig0, Content: {"notificationContentType":"ETA_INFO","topicType":"ETA","notificationPayLoad":[{"scheduledTime":"2017-12-15T11:09:10.0000000+01:00","estimatedTime":"2017-12-15T11:03:17.0000000+01:00","relatedTime":"2017-12-15T08:01:49.0000000+01:00","uniqSeqId":"e8547a7c-3443-4696-97a9-a84a008a749b","info":"PositionEvent","scemid":"T7V79NJUOB"}],"subscriptionID":"fbcba9a2af754fe8b65da84a008a6535"}
aeolix.component.ts?1fe6:277 Subscriber: Notification.JSt.Prod-bhwtct126ig0, Content: {"notificationContentType":"ETA_INFO","topicType":"ETA","notificationPayLoad":[{"scheduledTime":"2017-12-15T09:02:50.0000000+01:00","estimatedTime":"2017-12-15T09:02:16.0000000+01:00","relatedTime":"2017-12-15T08:01:49.0000000+01:00","uniqSeqId":"e8547a7c-3443-4696-97a9-a84a008a749b","info":"PositionEvent","scemid":"CIPC8SM2XS"}],"subscriptionID":"25917633b6bf4abdbb1da84a008a6311"}
aeolix.component.ts?1fe6:277 Subscriber: Notification.JSt.Prod-bhwtct126ig0, Content: {"notificationContentType":"ETA_INFO","topicType":"ETA","notificationPayLoad":[{"scheduledTime":"2017-12-15T08:34:20.0000000+01:00","estimatedTime":"2017-12-15T08:32:57.0000000+01:00","relatedTime":"2017-12-15T08:01:49.0000000+01:00","uniqSeqId":"e8547a7c-3443-4696-97a9-a84a008a749b","info":"PositionEvent","scemid":"YHBWEJJPI1"}],"subscriptionID":"2b7e535c217c42549c6fa84a008a64d8"}
aeolix.component.ts?1fe6:277 Subscriber: Notification.JSt.Prod-bhwtct126ig0, Content: {"notificationContentType":"ETA_INFO","topicType":"ETA","notificationPayLoad":[{"scheduledTime":"2017-12-15T10:18:20.0000000+01:00","estimatedTime":"2017-12-15T10:18:31.0000000+01:00","relatedTime":"2017-12-15T08:01:49.0000000+01:00","uniqSeqId":"e8547a7c-3443-4696-97a9-a84a008a749b","info":"PositionEvent","scemid":"MBS87OGQGZ"}],"subscriptionID":"4f3eace0dcd74486842aa84a008a633c"}
aeolix.component.ts?1fe6:277 Subscriber: Notification.JSt.Prod-bhwtct126ig0, Content: {"notificationContentType":"ETA_INFO","topicType":"ETA","notificationPayLoad":[{"scheduledTime":"2017-12-15T12:04:30.0000000+01:00","estimatedTime":"2017-12-15T12:01:48.0000000+01:00","relatedTime":"2017-12-15T08:01:49.0000000+01:00","uniqSeqId":"e8547a7c-3443-4696-97a9-a84a008a749b","info":"PositionEvent","scemid":"ML3S23QGGP"}],"subscriptionID":"4b3ad9c01ba14af188b4a84a008a6556"}
aeolix.component.ts?1fe6:277 Subscriber: Notification.JSt.Prod-bhwtct126ig0, Content: {"notificationContentType":"ETA_INFO","topicType":"ETA","notificationPayLoad":[{"scheduledTime":"2017-12-15T13:10:10.0000000+01:00","estimatedTime":"2017-12-15T13:06:55.0000000+01:00","relatedTime":"2017-12-15T08:01:49.0000000+01:00","uniqSeqId":"e8547a7c-3443-4696-97a9-a84a008a749b","info":"PositionEvent","scemid":"ZB6LXRBPAS"}],"subscriptionID":"6c9bf40a7d944a89ab4da84a008a637f"}
aeolix.component.ts?1fe6:277 Subscriber: Notification.JSt.Prod-bhwtct126ig0, Content: {"notificationContentType":"ETA_INFO","topicType":"ETA","notificationPayLoad":[{"scheduledTime":"2017-12-15T12:36:10.0000000+01:00","estimatedTime":"2017-12-15T12:35:07.0000000+01:00","relatedTime":"2017-12-15T08:01:49.0000000+01:00","uniqSeqId":"e8547a7c-3443-4696-97a9-a84a008a749b","info":"PositionEvent","scemid":"FKUJKCIH9J"}],"subscriptionID":"ad9ec5b661a440e2924ea84a008a656d"}
aeolix.component.ts?1fe6:277 Subscriber: Notification.JSt.Prod-bhwtct126ig0, Content: {"notificationContentType":"ETA_INFO","topicType":"ETA","notificationPayLoad":[{"scheduledTime":"2017-12-15T13:48:00.0000000+01:00","estimatedTime":"2017-12-15T13:48:56.0000000+01:00","relatedTime":"2017-12-15T08:01:49.0000000+01:00","uniqSeqId":"e8547a7c-3443-4696-97a9-a84a008a749b","info":"PositionEvent","scemid":"9MQHE44U8V"}],"subscriptionID":"86d7a0aeba864932acd7a84a008a638b"}
aeolix.component.ts?1fe6:277 Subscriber: Notification.JSt.Prod-bhwtct126ig0, Content: {"notificationContentType":"ETA_INFO","topicType":"ETA","notificationPayLoad":[{"scheduledTime":"2017-12-15T14:20:40.0000000+01:00","estimatedTime":"2017-12-15T14:22:44.0000000+01:00","relatedTime":"2017-12-15T08:01:49.0000000+01:00","uniqSeqId":"e8547a7c-3443-4696-97a9-a84a008a749b","info":"PositionEvent","scemid":"AQVQSR6KZD"}],"subscriptionID":"1b20f3e87e5843e4bf80a84a008a6580"}
aeolix.component.ts?1fe6:277 Subscriber: Notification.JSt.Prod-bhwtct126ig0, Content: {"notificationContentType":"ETA_INFO","topicType":"ETA","notificationPayLoad":[{"scheduledTime":"2017-12-15T14:39:00.0000000+01:00","estimatedTime":"2017-12-15T14:41:11.0000000+01:00","relatedTime":"2017-12-15T08:01:49.0000000+01:00","uniqSeqId":"e8547a7c-3443-4696-97a9-a84a008a749b","info":"PositionEvent","scemid":"C4BJ1SFUJ7"}],"subscriptionID":"ee538e18d7294f1d89d4a84a008a6598"}
aeolix.component.ts?1fe6:277 Subscriber: Notification.JSt.Prod-bhwtct126ig0, Content: {"notificationContentType":"ETA_INFO","topicType":"ETA","notificationPayLoad":[{"scheduledTime":"2017-12-15T14:56:30.0000000+01:00","estimatedTime":"2017-12-15T14:59:13.0000000+01:00","relatedTime":"2017-12-15T08:01:49.0000000+01:00","uniqSeqId":"e8547a7c-3443-4696-97a9-a84a008a749b","info":"PositionEvent","scemid":"BZ6AM5D5RP"}],"subscriptionID":"2451e855f1934ef29a16a84a008a63c4"}
aeolix.component.ts?1fe6:277 Subscriber: Notification.JSt.Prod-bhwtct126ig0, Content: {"notificationContentType":"ETA_INFO","topicType":"ETA","notificationPayLoad":[{"scheduledTime":"2017-12-15T15:22:40.0000000+01:00","estimatedTime":"2017-12-15T15:27:31.0000000+01:00","relatedTime":"2017-12-15T08:01:49.0000000+01:00","uniqSeqId":"e8547a7c-3443-4696-97a9-a84a008a749b","info":"PositionEvent","scemid":"9FJ3S4I913"}],"subscriptionID":"ff0ee48ee9c44c1cb663a84a008a65be"}
aeolix.component.ts?1fe6:277 Subscriber: Notification.JSt.Prod-bhwtct126ig0, Content: {"notificationContentType":"ETA_INFO","topicType":"ETA","notificationPayLoad":[{"scheduledTime":"2017-12-15T17:33:40.0000000+01:00","estimatedTime":"2017-12-15T17:31:24.0000000+01:00","relatedTime":"2017-12-15T08:01:49.0000000+01:00","uniqSeqId":"e8547a7c-3443-4696-97a9-a84a008a749b","info":"PositionEvent","scemid":"RDZHODMMIX"}],"subscriptionID":"d14ce9d1165f42359fe2a84a008a63fc"}
aeolix.component.ts?1fe6:277 Subscriber: Notification.JSt.Prod-bhwtct126ig0, Content: {"notificationContentType":"ETA_INFO","topicType":"ETA","notificationPayLoad":[{"scheduledTime":"2017-12-15T16:32:10.0000000+01:00","estimatedTime":"2017-12-15T15:52:29.0000000+01:00","relatedTime":"2017-12-15T08:01:49.0000000+01:00","uniqSeqId":"e8547a7c-3443-4696-97a9-a84a008a749b","info":"PositionEvent","scemid":"U3SZY7RLM1"}],"subscriptionID":"8d83fe3009e842e3872ca84a008a65e3"}
aeolix.component.ts?1fe6:277 Subscriber: Notification.JSt.Prod-bhwtct126ig0, Content: {"notificationContentType":"ETA_INFO","topicType":"ETA","notificationPayLoad":[{"scheduledTime":"2017-12-15T16:56:00.0000000+01:00","estimatedTime":"2017-12-15T16:55:11.0000000+01:00","relatedTime":"2017-12-15T08:01:49.0000000+01:00","uniqSeqId":"e8547a7c-3443-4696-97a9-a84a008a749b","info":"PositionEvent","scemid":"3JH5S6KD7D"}],"subscriptionID":"81e82957cdb3450caae8a84a008a65f1"}
aeolix.component.ts?1fe6:277 Subscriber: Notification.JSt.Prod-bhwtct126ig0, Content: {"notificationContentType":"ETA_INFO","topicType":"ETA","notificationPayLoad":[{"scheduledTime":"2017-12-15T09:43:10.0000000+01:00","estimatedTime":"2017-12-15T09:38:13.0000000+01:00","relatedTime":"2017-12-15T08:16:47.0000000+01:00","uniqSeqId":"a10eca34-4769-4e14-9ee4-a84a008a8aaa","info":"PositionEvent","scemid":"CKRGE33S5Q"}],"subscriptionID":"4a77d7f45fb04670a454a84a008a6506"}
aeolix.component.ts?1fe6:277 Subscriber: Notification.JSt.Prod-bhwtct126ig0, Content: {"notificationContentType":"ETA_INFO","topicType":"ETA","notificationPayLoad":[{"scheduledTime":"2017-12-15T09:02:50.0000000+01:00","estimatedTime":"2017-12-15T09:02:16.0000000+01:00","relatedTime":"2017-12-15T08:16:47.0000000+01:00","uniqSeqId":"a10eca34-4769-4e14-9ee4-a84a008a8aaa","info":"PositionEvent","scemid":"CIPC8SM2XS"}],"subscriptionID":"25917633b6bf4abdbb1da84a008a6311"}
aeolix.component.ts?1fe6:277 Subscriber: Notification.JSt.Prod-bhwtct126ig0, Content: {"notificationContentType":"ETA_INFO","topicType":"ETA","notificationPayLoad":[{"scheduledTime":"2017-12-15T08:34:20.0000000+01:00","estimatedTime":"2017-12-15T08:33:48.0000000+01:00","relatedTime":"2017-12-15T08:16:47.0000000+01:00","uniqSeqId":"a10eca34-4769-4e14-9ee4-a84a008a8aaa","info":"PositionEvent","scemid":"YHBWEJJPI1"}],"subscriptionID":"2b7e535c217c42549c6fa84a008a64d8"}
aeolix.component.ts?1fe6:277 Subscriber: Notification.JSt.Prod-bhwtct126ig0, Content: {"notificationContentType":"ETA_INFO","topicType":"ETA","notificationPayLoad":[{"scheduledTime":"2017-12-15T10:18:20.0000000+01:00","estimatedTime":"2017-12-15T10:18:32.0000000+01:00","relatedTime":"2017-12-15T08:16:47.0000000+01:00","uniqSeqId":"a10eca34-4769-4e14-9ee4-a84a008a8aaa","info":"PositionEvent","scemid":"MBS87OGQGZ"}],"subscriptionID":"4f3eace0dcd74486842aa84a008a633c"}
aeolix.component.ts?1fe6:277 Subscriber: Notification.JSt.Prod-bhwtct126ig0, Content: {"notificationContentType":"ETA_INFO","topicType":"ETA","notificationPayLoad":[{"scheduledTime":"2017-12-15T11:09:10.0000000+01:00","estimatedTime":"2017-12-15T11:03:18.0000000+01:00","relatedTime":"2017-12-15T08:16:47.0000000+01:00","uniqSeqId":"a10eca34-4769-4e14-9ee4-a84a008a8aaa","info":"PositionEvent","scemid":"T7V79NJUOB"}],"subscriptionID":"fbcba9a2af754fe8b65da84a008a6535"}
aeolix.component.ts?1fe6:277 Subscriber: Notification.JSt.Prod-bhwtct126ig0, Content: {"notificationContentType":"ETA_INFO","topicType":"ETA","notificationPayLoad":[{"scheduledTime":"2017-12-15T13:10:10.0000000+01:00","estimatedTime":"2017-12-15T13:06:54.0000000+01:00","relatedTime":"2017-12-15T08:16:47.0000000+01:00","uniqSeqId":"a10eca34-4769-4e14-9ee4-a84a008a8aaa","info":"PositionEvent","scemid":"ZB6LXRBPAS"}],"subscriptionID":"6c9bf40a7d944a89ab4da84a008a637f"}
aeolix.component.ts?1fe6:277 Subscriber: Notification.JSt.Prod-bhwtct126ig0, Content: {"notificationContentType":"ETA_INFO","topicType":"ETA","notificationPayLoad":[{"scheduledTime":"2017-12-15T12:04:30.0000000+01:00","estimatedTime":"2017-12-15T12:01:47.0000000+01:00","relatedTime":"2017-12-15T08:16:47.0000000+01:00","uniqSeqId":"a10eca34-4769-4e14-9ee4-a84a008a8aaa","info":"PositionEvent","scemid":"ML3S23QGGP"}],"subscriptionID":"4b3ad9c01ba14af188b4a84a008a6556"}
aeolix.component.ts?1fe6:277 Subscriber: Notification.JSt.Prod-bhwtct126ig0, Content: {"notificationContentType":"ETA_INFO","topicType":"ETA","notificationPayLoad":[{"scheduledTime":"2017-12-15T12:36:10.0000000+01:00","estimatedTime":"2017-12-15T12:35:06.0000000+01:00","relatedTime":"2017-12-15T08:16:47.0000000+01:00","uniqSeqId":"a10eca34-4769-4e14-9ee4-a84a008a8aaa","info":"PositionEvent","scemid":"FKUJKCIH9J"}],"subscriptionID":"ad9ec5b661a440e2924ea84a008a656d"}
aeolix.component.ts?1fe6:277 Subscriber: Notification.JSt.Prod-bhwtct126ig0, Content: {"notificationContentType":"ETA_INFO","topicType":"ETA","notificationPayLoad":[{"scheduledTime":"2017-12-15T13:48:00.0000000+01:00","estimatedTime":"2017-12-15T13:48:54.0000000+01:00","relatedTime":"2017-12-15T08:16:47.0000000+01:00","uniqSeqId":"a10eca34-4769-4e14-9ee4-a84a008a8aaa","info":"PositionEvent","scemid":"9MQHE44U8V"}],"subscriptionID":"86d7a0aeba864932acd7a84a008a638b"}
aeolix.component.ts?1fe6:277 Subscriber: Notification.JSt.Prod-bhwtct126ig0, Content: {"notificationContentType":"ETA_INFO","topicType":"ETA","notificationPayLoad":[{"scheduledTime":"2017-12-15T14:39:00.0000000+01:00","estimatedTime":"2017-12-15T14:41:10.0000000+01:00","relatedTime":"2017-12-15T08:16:47.0000000+01:00","uniqSeqId":"a10eca34-4769-4e14-9ee4-a84a008a8aaa","info":"PositionEvent","scemid":"C4BJ1SFUJ7"}],"subscriptionID":"ee538e18d7294f1d89d4a84a008a6598"}
aeolix.component.ts?1fe6:277 Subscriber: Notification.JSt.Prod-bhwtct126ig0, Content: {"notificationContentType":"ETA_INFO","topicType":"ETA","notificationPayLoad":[{"scheduledTime":"2017-12-15T14:20:40.0000000+01:00","estimatedTime":"2017-12-15T14:22:43.0000000+01:00","relatedTime":"2017-12-15T08:16:47.0000000+01:00","uniqSeqId":"a10eca34-4769-4e14-9ee4-a84a008a8aaa","info":"PositionEvent","scemid":"AQVQSR6KZD"}],"subscriptionID":"1b20f3e87e5843e4bf80a84a008a6580"}
aeolix.component.ts?1fe6:277 Subscriber: Notification.JSt.Prod-bhwtct126ig0, Content: {"notificationContentType":"ETA_INFO","topicType":"ETA","notificationPayLoad":[{"scheduledTime":"2017-12-15T14:56:30.0000000+01:00","estimatedTime":"2017-12-15T14:59:12.0000000+01:00","relatedTime":"2017-12-15T08:16:47.0000000+01:00","uniqSeqId":"a10eca34-4769-4e14-9ee4-a84a008a8aaa","info":"PositionEvent","scemid":"BZ6AM5D5RP"}],"subscriptionID":"2451e855f1934ef29a16a84a008a63c4"}
aeolix.component.ts?1fe6:277 Subscriber: Notification.JSt.Prod-bhwtct126ig0, Content: {"notificationContentType":"ETA_INFO","topicType":"ETA","notificationPayLoad":[{"scheduledTime":"2017-12-15T15:22:40.0000000+01:00","estimatedTime":"2017-12-15T15:27:30.0000000+01:00","relatedTime":"2017-12-15T08:16:47.0000000+01:00","uniqSeqId":"a10eca34-4769-4e14-9ee4-a84a008a8aaa","info":"PositionEvent","scemid":"9FJ3S4I913"}],"subscriptionID":"ff0ee48ee9c44c1cb663a84a008a65be"}
aeolix.component.ts?1fe6:277 Subscriber: Notification.JSt.Prod-bhwtct126ig0, Content: {"notificationContentType":"ETA_INFO","topicType":"ETA","notificationPayLoad":[{"scheduledTime":"2017-12-15T17:33:40.0000000+01:00","estimatedTime":"2017-12-15T17:31:24.0000000+01:00","relatedTime":"2017-12-15T08:16:47.0000000+01:00","uniqSeqId":"a10eca34-4769-4e14-9ee4-a84a008a8aaa","info":"PositionEvent","scemid":"RDZHODMMIX"}],"subscriptionID":"d14ce9d1165f42359fe2a84a008a63fc"}
aeolix.component.ts?1fe6:277 Subscriber: Notification.JSt.Prod-bhwtct126ig0, Content: {"notificationContentType":"ETA_INFO","topicType":"ETA","notificationPayLoad":[{"scheduledTime":"2017-12-15T16:32:10.0000000+01:00","estimatedTime":"2017-12-15T15:52:28.0000000+01:00","relatedTime":"2017-12-15T08:16:47.0000000+01:00","uniqSeqId":"a10eca34-4769-4e14-9ee4-a84a008a8aaa","info":"PositionEvent","scemid":"U3SZY7RLM1"}],"subscriptionID":"8d83fe3009e842e3872ca84a008a65e3"}
aeolix.component.ts?1fe6:277 Subscriber: Notification.JSt.Prod-bhwtct126ig0, Content: {"notificationContentType":"ETA_INFO","topicType":"ETA","notificationPayLoad":[{"scheduledTime":"2017-12-15T16:56:00.0000000+01:00","estimatedTime":"2017-12-15T16:55:10.0000000+01:00","relatedTime":"2017-12-15T08:16:47.0000000+01:00","uniqSeqId":"a10eca34-4769-4e14-9ee4-a84a008a8aaa","info":"PositionEvent","scemid":"3JH5S6KD7D"}],"subscriptionID":"81e82957cdb3450caae8a84a008a65f1"}
aeolix.component.ts?1fe6:277 Subscriber: Notification.JSt.Prod-bhwtct126ig0, Content: {"notificationContentType":"STOP_SUSPENDED","topicType":"ETA","notificationPayLoad":[{"coordinate":{"locationX":8.4816554317,"locationY":49.631020675},"timeStamp":"2017-12-15T08:49:25.0000000+01:00","scemid":"YHBWEJJPI1"}],"subscriptionID":"2b7e535c217c42549c6fa84a008a64d8"}
aeolix.component.ts?1fe6:277 Subscriber: Notification.JSt.Prod-bhwtct126ig0, Content: {"notificationContentType":"STOP_APPROACHING","topicType":"ETA","notificationPayLoad":[{"coordinate":{"locationX":8.4816554317,"locationY":49.631020675},"timeStamp":"2017-12-15T08:49:25.0000000+01:00","scemid":"CIPC8SM2XS"}],"subscriptionID":"25917633b6bf4abdbb1da84a008a6311"}
aeolix.component.ts?1fe6:277 Subscriber: Notification.JSt.Prod-bhwtct126ig0, Content: {"notificationContentType":"ETA_INFO","topicType":"ETA","notificationPayLoad":[{"scheduledTime":"2017-12-15T09:02:50.0000000+01:00","estimatedTime":"2017-12-15T09:02:16.0000000+01:00","relatedTime":"2017-12-15T08:27:18.0000000+01:00","uniqSeqId":"0dd7d4e4-58e9-46b7-a025-a84a008a9a2c","info":"PositionEvent","scemid":"CIPC8SM2XS"}],"subscriptionID":"25917633b6bf4abdbb1da84a008a6311"}
aeolix.component.ts?1fe6:277 Subscriber: Notification.JSt.Prod-bhwtct126ig0, Content: {"notificationContentType":"ETA_INFO","topicType":"ETA","notificationPayLoad":[{"scheduledTime":"2017-12-15T09:43:10.0000000+01:00","estimatedTime":"2017-12-15T09:38:14.0000000+01:00","relatedTime":"2017-12-15T08:27:18.0000000+01:00","uniqSeqId":"0dd7d4e4-58e9-46b7-a025-a84a008a9a2c","info":"PositionEvent","scemid":"CKRGE33S5Q"}],"subscriptionID":"4a77d7f45fb04670a454a84a008a6506"}
aeolix.component.ts?1fe6:277 Subscriber: Notification.JSt.Prod-bhwtct126ig0, Content: {"notificationContentType":"ETA_INFO","topicType":"ETA","notificationPayLoad":[{"scheduledTime":"2017-12-15T08:34:20.0000000+01:00","estimatedTime":"2017-12-15T08:32:55.0000000+01:00","relatedTime":"2017-12-15T08:27:18.0000000+01:00","uniqSeqId":"0dd7d4e4-58e9-46b7-a025-a84a008a9a2c","info":"PositionEvent","scemid":"YHBWEJJPI1"}],"subscriptionID":"2b7e535c217c42549c6fa84a008a64d8"}
aeolix.component.ts?1fe6:277 Subscriber: Notification.JSt.Prod-bhwtct126ig0, Content: {"notificationContentType":"ETA_INFO","topicType":"ETA","notificationPayLoad":[{"scheduledTime":"2017-12-15T10:18:20.0000000+01:00","estimatedTime":"2017-12-15T10:18:32.0000000+01:00","relatedTime":"2017-12-15T08:27:18.0000000+01:00","uniqSeqId":"0dd7d4e4-58e9-46b7-a025-a84a008a9a2c","info":"PositionEvent","scemid":"MBS87OGQGZ"}],"subscriptionID":"4f3eace0dcd74486842aa84a008a633c"}
aeolix.component.ts?1fe6:277 Subscriber: Notification.JSt.Prod-bhwtct126ig0, Content: {"notificationContentType":"ETA_INFO","topicType":"ETA","notificationPayLoad":[{"scheduledTime":"2017-12-15T11:09:10.0000000+01:00","estimatedTime":"2017-12-15T11:03:17.0000000+01:00","relatedTime":"2017-12-15T08:27:18.0000000+01:00","uniqSeqId":"0dd7d4e4-58e9-46b7-a025-a84a008a9a2c","info":"PositionEvent","scemid":"T7V79NJUOB"}],"subscriptionID":"fbcba9a2af754fe8b65da84a008a6535"}
aeolix.component.ts?1fe6:277 Subscriber: Notification.JSt.Prod-bhwtct126ig0, Content: {"notificationContentType":"ETA_INFO","topicType":"ETA","notificationPayLoad":[{"scheduledTime":"2017-12-15T12:04:30.0000000+01:00","estimatedTime":"2017-12-15T12:01:48.0000000+01:00","relatedTime":"2017-12-15T08:27:18.0000000+01:00","uniqSeqId":"0dd7d4e4-58e9-46b7-a025-a84a008a9a2c","info":"PositionEvent","scemid":"ML3S23QGGP"}],"subscriptionID":"4b3ad9c01ba14af188b4a84a008a6556"}
aeolix.component.ts?1fe6:277 Subscriber: Notification.JSt.Prod-bhwtct126ig0, Content: {"notificationContentType":"ETA_INFO","topicType":"ETA","notificationPayLoad":[{"scheduledTime":"2017-12-15T13:10:10.0000000+01:00","estimatedTime":"2017-12-15T13:06:55.0000000+01:00","relatedTime":"2017-12-15T08:27:18.0000000+01:00","uniqSeqId":"0dd7d4e4-58e9-46b7-a025-a84a008a9a2c","info":"PositionEvent","scemid":"ZB6LXRBPAS"}],"subscriptionID":"6c9bf40a7d944a89ab4da84a008a637f"}
aeolix.component.ts?1fe6:277 Subscriber: Notification.JSt.Prod-bhwtct126ig0, Content: {"notificationContentType":"ETA_INFO","topicType":"ETA","notificationPayLoad":[{"scheduledTime":"2017-12-15T12:36:10.0000000+01:00","estimatedTime":"2017-12-15T12:35:07.0000000+01:00","relatedTime":"2017-12-15T08:27:18.0000000+01:00","uniqSeqId":"0dd7d4e4-58e9-46b7-a025-a84a008a9a2c","info":"PositionEvent","scemid":"FKUJKCIH9J"}],"subscriptionID":"ad9ec5b661a440e2924ea84a008a656d"}
aeolix.component.ts?1fe6:277 Subscriber: Notification.JSt.Prod-bhwtct126ig0, Content: {"notificationContentType":"ETA_INFO","topicType":"ETA","notificationPayLoad":[{"scheduledTime":"2017-12-15T13:48:00.0000000+01:00","estimatedTime":"2017-12-15T13:48:54.0000000+01:00","relatedTime":"2017-12-15T08:27:18.0000000+01:00","uniqSeqId":"0dd7d4e4-58e9-46b7-a025-a84a008a9a2c","info":"PositionEvent","scemid":"9MQHE44U8V"}],"subscriptionID":"86d7a0aeba864932acd7a84a008a638b"}
aeolix.component.ts?1fe6:277 Subscriber: Notification.JSt.Prod-bhwtct126ig0, Content: {"notificationContentType":"ETA_INFO","topicType":"ETA","notificationPayLoad":[{"scheduledTime":"2017-12-15T14:39:00.0000000+01:00","estimatedTime":"2017-12-15T14:41:09.0000000+01:00","relatedTime":"2017-12-15T08:27:18.0000000+01:00","uniqSeqId":"0dd7d4e4-58e9-46b7-a025-a84a008a9a2c","info":"PositionEvent","scemid":"C4BJ1SFUJ7"}],"subscriptionID":"ee538e18d7294f1d89d4a84a008a6598"}
aeolix.component.ts?1fe6:277 Subscriber: Notification.JSt.Prod-bhwtct126ig0, Content: {"notificationContentType":"ETA_INFO","topicType":"ETA","notificationPayLoad":[{"scheduledTime":"2017-12-15T14:20:40.0000000+01:00","estimatedTime":"2017-12-15T14:22:42.0000000+01:00","relatedTime":"2017-12-15T08:27:18.0000000+01:00","uniqSeqId":"0dd7d4e4-58e9-46b7-a025-a84a008a9a2c","info":"PositionEvent","scemid":"AQVQSR6KZD"}],"subscriptionID":"1b20f3e87e5843e4bf80a84a008a6580"}
aeolix.component.ts?1fe6:277 Subscriber: Notification.JSt.Prod-bhwtct126ig0, Content: {"notificationContentType":"ETA_INFO","topicType":"ETA","notificationPayLoad":[{"scheduledTime":"2017-12-15T14:56:30.0000000+01:00","estimatedTime":"2017-12-15T14:59:11.0000000+01:00","relatedTime":"2017-12-15T08:27:18.0000000+01:00","uniqSeqId":"0dd7d4e4-58e9-46b7-a025-a84a008a9a2c","info":"PositionEvent","scemid":"BZ6AM5D5RP"}],"subscriptionID":"2451e855f1934ef29a16a84a008a63c4"}
aeolix.component.ts?1fe6:277 Subscriber: Notification.JSt.Prod-bhwtct126ig0, Content: {"notificationContentType":"ETA_INFO","topicType":"ETA","notificationPayLoad":[{"scheduledTime":"2017-12-15T15:22:40.0000000+01:00","estimatedTime":"2017-12-15T15:27:29.0000000+01:00","relatedTime":"2017-12-15T08:27:18.0000000+01:00","uniqSeqId":"0dd7d4e4-58e9-46b7-a025-a84a008a9a2c","info":"PositionEvent","scemid":"9FJ3S4I913"}],"subscriptionID":"ff0ee48ee9c44c1cb663a84a008a65be"}
aeolix.component.ts?1fe6:277 Subscriber: Notification.JSt.Prod-bhwtct126ig0, Content: {"notificationContentType":"ETA_INFO","topicType":"ETA","notificationPayLoad":[{"scheduledTime":"2017-12-15T17:33:40.0000000+01:00","estimatedTime":"2017-12-15T17:31:24.0000000+01:00","relatedTime":"2017-12-15T08:27:18.0000000+01:00","uniqSeqId":"0dd7d4e4-58e9-46b7-a025-a84a008a9a2c","info":"PositionEvent","scemid":"RDZHODMMIX"}],"subscriptionID":"d14ce9d1165f42359fe2a84a008a63fc"}
aeolix.component.ts?1fe6:277 Subscriber: Notification.JSt.Prod-bhwtct126ig0, Content: {"notificationContentType":"ETA_INFO","topicType":"ETA","notificationPayLoad":[{"scheduledTime":"2017-12-15T16:32:10.0000000+01:00","estimatedTime":"2017-12-15T15:52:26.0000000+01:00","relatedTime":"2017-12-15T08:27:18.0000000+01:00","uniqSeqId":"0dd7d4e4-58e9-46b7-a025-a84a008a9a2c","info":"PositionEvent","scemid":"U3SZY7RLM1"}],"subscriptionID":"8d83fe3009e842e3872ca84a008a65e3"}
aeolix.component.ts?1fe6:277 Subscriber: Notification.JSt.Prod-bhwtct126ig0, Content: {"notificationContentType":"ETA_INFO","topicType":"ETA","notificationPayLoad":[{"scheduledTime":"2017-12-15T16:56:00.0000000+01:00","estimatedTime":"2017-12-15T16:55:11.0000000+01:00","relatedTime":"2017-12-15T08:27:18.0000000+01:00","uniqSeqId":"0dd7d4e4-58e9-46b7-a025-a84a008a9a2c","info":"PositionEvent","scemid":"3JH5S6KD7D"}],"subscriptionID":"81e82957cdb3450caae8a84a008a65f1"}
aeolix.component.ts?1fe6:277 Subscriber: Notification.JSt.Prod-bhwtct126ig0, Content: {"notificationContentType":"ETA_INFO","topicType":"ETA","notificationPayLoad":[{"scheduledTime":"2017-12-15T09:02:50.0000000+01:00","estimatedTime":"2017-12-15T09:02:40.0000000+01:00","relatedTime":"2017-12-15T08:52:48.0000000+01:00","uniqSeqId":"2ff811a3-9c87-4b76-9edf-a84a008abbe0","info":"PositionEvent","scemid":"CIPC8SM2XS"}],"subscriptionID":"25917633b6bf4abdbb1da84a008a6311"}
aeolix.component.ts?1fe6:277 Subscriber: Notification.JSt.Prod-bhwtct126ig0, Content: {"notificationContentType":"ETA_INFO","topicType":"ETA","notificationPayLoad":[{"scheduledTime":"2017-12-15T09:43:10.0000000+01:00","estimatedTime":"2017-12-15T09:38:12.0000000+01:00","relatedTime":"2017-12-15T08:52:48.0000000+01:00","uniqSeqId":"2ff811a3-9c87-4b76-9edf-a84a008abbe0","info":"PositionEvent","scemid":"CKRGE33S5Q"}],"subscriptionID":"4a77d7f45fb04670a454a84a008a6506"}
aeolix.component.ts?1fe6:277 Subscriber: Notification.JSt.Prod-bhwtct126ig0, Content: {"notificationContentType":"ETA_INFO","topicType":"ETA","notificationPayLoad":[{"scheduledTime":"2017-12-15T10:18:20.0000000+01:00","estimatedTime":"2017-12-15T10:18:32.0000000+01:00","relatedTime":"2017-12-15T08:52:48.0000000+01:00","uniqSeqId":"2ff811a3-9c87-4b76-9edf-a84a008abbe0","info":"PositionEvent","scemid":"MBS87OGQGZ"}],"subscriptionID":"4f3eace0dcd74486842aa84a008a633c"}
aeolix.component.ts?1fe6:277 Subscriber: Notification.JSt.Prod-bhwtct126ig0, Content: {"notificationContentType":"ETA_INFO","topicType":"ETA","notificationPayLoad":[{"scheduledTime":"2017-12-15T11:09:10.0000000+01:00","estimatedTime":"2017-12-15T11:03:18.0000000+01:00","relatedTime":"2017-12-15T08:52:48.0000000+01:00","uniqSeqId":"2ff811a3-9c87-4b76-9edf-a84a008abbe0","info":"PositionEvent","scemid":"T7V79NJUOB"}],"subscriptionID":"fbcba9a2af754fe8b65da84a008a6535"}
aeolix.component.ts?1fe6:277 Subscriber: Notification.JSt.Prod-bhwtct126ig0, Content: {"notificationContentType":"ETA_INFO","topicType":"ETA","notificationPayLoad":[{"scheduledTime":"2017-12-15T12:04:30.0000000+01:00","estimatedTime":"2017-12-15T12:01:47.0000000+01:00","relatedTime":"2017-12-15T08:52:48.0000000+01:00","uniqSeqId":"2ff811a3-9c87-4b76-9edf-a84a008abbe0","info":"PositionEvent","scemid":"ML3S23QGGP"}],"subscriptionID":"4b3ad9c01ba14af188b4a84a008a6556"}
aeolix.component.ts?1fe6:277 Subscriber: Notification.JSt.Prod-bhwtct126ig0, Content: {"notificationContentType":"ETA_INFO","topicType":"ETA","notificationPayLoad":[{"scheduledTime":"2017-12-15T14:39:00.0000000+01:00","estimatedTime":"2017-12-15T14:41:10.0000000+01:00","relatedTime":"2017-12-15T08:52:48.0000000+01:00","uniqSeqId":"2ff811a3-9c87-4b76-9edf-a84a008abbe0","info":"PositionEvent","scemid":"C4BJ1SFUJ7"}],"subscriptionID":"ee538e18d7294f1d89d4a84a008a6598"}
aeolix.component.ts?1fe6:277 Subscriber: Notification.JSt.Prod-bhwtct126ig0, Content: {"notificationContentType":"ETA_INFO","topicType":"ETA","notificationPayLoad":[{"scheduledTime":"2017-12-15T13:48:00.0000000+01:00","estimatedTime":"2017-12-15T13:48:55.0000000+01:00","relatedTime":"2017-12-15T08:52:48.0000000+01:00","uniqSeqId":"2ff811a3-9c87-4b76-9edf-a84a008abbe0","info":"PositionEvent","scemid":"9MQHE44U8V"}],"subscriptionID":"86d7a0aeba864932acd7a84a008a638b"}
aeolix.component.ts?1fe6:277 Subscriber: Notification.JSt.Prod-bhwtct126ig0, Content: {"notificationContentType":"ETA_INFO","topicType":"ETA","notificationPayLoad":[{"scheduledTime":"2017-12-15T13:10:10.0000000+01:00","estimatedTime":"2017-12-15T13:06:55.0000000+01:00","relatedTime":"2017-12-15T08:52:48.0000000+01:00","uniqSeqId":"2ff811a3-9c87-4b76-9edf-a84a008abbe0","info":"PositionEvent","scemid":"ZB6LXRBPAS"}],"subscriptionID":"6c9bf40a7d944a89ab4da84a008a637f"}
aeolix.component.ts?1fe6:277 Subscriber: Notification.JSt.Prod-bhwtct126ig0, Content: {"notificationContentType":"ETA_INFO","topicType":"ETA","notificationPayLoad":[{"scheduledTime":"2017-12-15T14:20:40.0000000+01:00","estimatedTime":"2017-12-15T14:22:43.0000000+01:00","relatedTime":"2017-12-15T08:52:48.0000000+01:00","uniqSeqId":"2ff811a3-9c87-4b76-9edf-a84a008abbe0","info":"PositionEvent","scemid":"AQVQSR6KZD"}],"subscriptionID":"1b20f3e87e5843e4bf80a84a008a6580"}
aeolix.component.ts?1fe6:277 Subscriber: Notification.JSt.Prod-bhwtct126ig0, Content: {"notificationContentType":"ETA_INFO","topicType":"ETA","notificationPayLoad":[{"scheduledTime":"2017-12-15T12:36:10.0000000+01:00","estimatedTime":"2017-12-15T12:35:07.0000000+01:00","relatedTime":"2017-12-15T08:52:48.0000000+01:00","uniqSeqId":"2ff811a3-9c87-4b76-9edf-a84a008abbe0","info":"PositionEvent","scemid":"FKUJKCIH9J"}],"subscriptionID":"ad9ec5b661a440e2924ea84a008a656d"}
aeolix.component.ts?1fe6:277 Subscriber: Notification.JSt.Prod-bhwtct126ig0, Content: {"notificationContentType":"ETA_INFO","topicType":"ETA","notificationPayLoad":[{"scheduledTime":"2017-12-15T14:56:30.0000000+01:00","estimatedTime":"2017-12-15T14:59:12.0000000+01:00","relatedTime":"2017-12-15T08:52:48.0000000+01:00","uniqSeqId":"2ff811a3-9c87-4b76-9edf-a84a008abbe0","info":"PositionEvent","scemid":"BZ6AM5D5RP"}],"subscriptionID":"2451e855f1934ef29a16a84a008a63c4"}
aeolix.component.ts?1fe6:277 Subscriber: Notification.JSt.Prod-bhwtct126ig0, Content: {"notificationContentType":"ETA_INFO","topicType":"ETA","notificationPayLoad":[{"scheduledTime":"2017-12-15T15:22:40.0000000+01:00","estimatedTime":"2017-12-15T15:27:32.0000000+01:00","relatedTime":"2017-12-15T08:52:48.0000000+01:00","uniqSeqId":"2ff811a3-9c87-4b76-9edf-a84a008abbe0","info":"PositionEvent","scemid":"9FJ3S4I913"}],"subscriptionID":"ff0ee48ee9c44c1cb663a84a008a65be"}
aeolix.component.ts?1fe6:277 Subscriber: Notification.JSt.Prod-bhwtct126ig0, Content: {"notificationContentType":"ETA_INFO","topicType":"ETA","notificationPayLoad":[{"scheduledTime":"2017-12-15T17:33:40.0000000+01:00","estimatedTime":"2017-12-15T17:31:26.0000000+01:00","relatedTime":"2017-12-15T08:52:48.0000000+01:00","uniqSeqId":"2ff811a3-9c87-4b76-9edf-a84a008abbe0","info":"PositionEvent","scemid":"RDZHODMMIX"}],"subscriptionID":"d14ce9d1165f42359fe2a84a008a63fc"}
aeolix.component.ts?1fe6:277 Subscriber: Notification.JSt.Prod-bhwtct126ig0, Content: {"notificationContentType":"ETA_INFO","topicType":"ETA","notificationPayLoad":[{"scheduledTime":"2017-12-15T16:32:10.0000000+01:00","estimatedTime":"2017-12-15T16:22:29.0000000+01:00","relatedTime":"2017-12-15T08:52:48.0000000+01:00","uniqSeqId":"2ff811a3-9c87-4b76-9edf-a84a008abbe0","info":"PositionEvent","scemid":"U3SZY7RLM1"}],"subscriptionID":"8d83fe3009e842e3872ca84a008a65e3"}
aeolix.component.ts?1fe6:277 Subscriber: Notification.JSt.Prod-bhwtct126ig0, Content: {"notificationContentType":"ETA_INFO","topicType":"ETA","notificationPayLoad":[{"scheduledTime":"2017-12-15T16:56:00.0000000+01:00","estimatedTime":"2017-12-15T16:55:11.0000000+01:00","relatedTime":"2017-12-15T08:52:48.0000000+01:00","uniqSeqId":"2ff811a3-9c87-4b76-9edf-a84a008abbe0","info":"PositionEvent","scemid":"3JH5S6KD7D"}],"subscriptionID":"81e82957cdb3450caae8a84a008a65f1"}
aeolix.component.ts?1fe6:277 Subscriber: Notification.JSt.Prod-bhwtct126ig0, Content: {"notificationContentType":"STOP_SUSPENDED","topicType":"ETA","notificationPayLoad":[{"coordinate":{"locationX":8.483385562,"locationY":49.589427987},"timeStamp":"2017-12-15T09:17:55.0000000+01:00","scemid":"CIPC8SM2XS"}],"subscriptionID":"25917633b6bf4abdbb1da84a008a6311"}
aeolix.component.ts?1fe6:277 Subscriber: Notification.JSt.Prod-bhwtct126ig0, Content: {"notificationContentType":"STOP_APPROACHING","topicType":"ETA","notificationPayLoad":[{"coordinate":{"locationX":8.483385562,"locationY":49.589427987},"timeStamp":"2017-12-15T09:17:55.0000000+01:00","scemid":"CKRGE33S5Q"}],"subscriptionID":"4a77d7f45fb04670a454a84a008a6506"}
aeolix.component.ts?1fe6:277 Subscriber: Notification.JSt.Prod-bhwtct126ig0, Content: {"notificationContentType":"ETA_INFO","topicType":"ETA","notificationPayLoad":[{"scheduledTime":"2017-12-15T09:02:50.0000000+01:00","estimatedTime":"2017-12-15T09:02:41.0000000+01:00","relatedTime":"2017-12-15T09:00:28.0000000+01:00","uniqSeqId":"444e43de-bf83-4e8b-b6bb-a84a008ac8db","info":"PositionEvent","scemid":"CIPC8SM2XS"}],"subscriptionID":"25917633b6bf4abdbb1da84a008a6311"}
aeolix.component.ts?1fe6:277 Subscriber: Notification.JSt.Prod-bhwtct126ig0, Content: {"notificationContentType":"ETA_INFO","topicType":"ETA","notificationPayLoad":[{"scheduledTime":"2017-12-15T09:43:10.0000000+01:00","estimatedTime":"2017-12-15T09:38:13.0000000+01:00","relatedTime":"2017-12-15T09:00:28.0000000+01:00","uniqSeqId":"444e43de-bf83-4e8b-b6bb-a84a008ac8db","info":"PositionEvent","scemid":"CKRGE33S5Q"}],"subscriptionID":"4a77d7f45fb04670a454a84a008a6506"}
aeolix.component.ts?1fe6:277 Subscriber: Notification.JSt.Prod-bhwtct126ig0, Content: {"notificationContentType":"ETA_INFO","topicType":"ETA","notificationPayLoad":[{"scheduledTime":"2017-12-15T10:18:20.0000000+01:00","estimatedTime":"2017-12-15T10:18:32.0000000+01:00","relatedTime":"2017-12-15T09:00:28.0000000+01:00","uniqSeqId":"444e43de-bf83-4e8b-b6bb-a84a008ac8db","info":"PositionEvent","scemid":"MBS87OGQGZ"}],"subscriptionID":"4f3eace0dcd74486842aa84a008a633c"}
aeolix.component.ts?1fe6:277 Subscriber: Notification.JSt.Prod-bhwtct126ig0, Content: {"notificationContentType":"ETA_INFO","topicType":"ETA","notificationPayLoad":[{"scheduledTime":"2017-12-15T11:09:10.0000000+01:00","estimatedTime":"2017-12-15T11:03:17.0000000+01:00","relatedTime":"2017-12-15T09:00:28.0000000+01:00","uniqSeqId":"444e43de-bf83-4e8b-b6bb-a84a008ac8db","info":"PositionEvent","scemid":"T7V79NJUOB"}],"subscriptionID":"fbcba9a2af754fe8b65da84a008a6535"}
aeolix.component.ts?1fe6:277 Subscriber: Notification.JSt.Prod-bhwtct126ig0, Content: {"notificationContentType":"ETA_INFO","topicType":"ETA","notificationPayLoad":[{"scheduledTime":"2017-12-15T12:04:30.0000000+01:00","estimatedTime":"2017-12-15T12:01:48.0000000+01:00","relatedTime":"2017-12-15T09:00:28.0000000+01:00","uniqSeqId":"444e43de-bf83-4e8b-b6bb-a84a008ac8db","info":"PositionEvent","scemid":"ML3S23QGGP"}],"subscriptionID":"4b3ad9c01ba14af188b4a84a008a6556"}
aeolix.component.ts?1fe6:277 Subscriber: Notification.JSt.Prod-bhwtct126ig0, Content: {"notificationContentType":"ETA_INFO","topicType":"ETA","notificationPayLoad":[{"scheduledTime":"2017-12-15T13:10:10.0000000+01:00","estimatedTime":"2017-12-15T13:06:54.0000000+01:00","relatedTime":"2017-12-15T09:00:28.0000000+01:00","uniqSeqId":"444e43de-bf83-4e8b-b6bb-a84a008ac8db","info":"PositionEvent","scemid":"ZB6LXRBPAS"}],"subscriptionID":"6c9bf40a7d944a89ab4da84a008a637f"}
aeolix.component.ts?1fe6:277 Subscriber: Notification.JSt.Prod-bhwtct126ig0, Content: {"notificationContentType":"ETA_INFO","topicType":"ETA","notificationPayLoad":[{"scheduledTime":"2017-12-15T12:36:10.0000000+01:00","estimatedTime":"2017-12-15T12:35:07.0000000+01:00","relatedTime":"2017-12-15T09:00:28.0000000+01:00","uniqSeqId":"444e43de-bf83-4e8b-b6bb-a84a008ac8db","info":"PositionEvent","scemid":"FKUJKCIH9J"}],"subscriptionID":"ad9ec5b661a440e2924ea84a008a656d"}
aeolix.component.ts?1fe6:277 Subscriber: Notification.JSt.Prod-bhwtct126ig0, Content: {"notificationContentType":"ETA_INFO","topicType":"ETA","notificationPayLoad":[{"scheduledTime":"2017-12-15T14:56:30.0000000+01:00","estimatedTime":"2017-12-15T14:59:12.0000000+01:00","relatedTime":"2017-12-15T09:00:28.0000000+01:00","uniqSeqId":"444e43de-bf83-4e8b-b6bb-a84a008ac8db","info":"PositionEvent","scemid":"BZ6AM5D5RP"}],"subscriptionID":"2451e855f1934ef29a16a84a008a63c4"}
aeolix.component.ts?1fe6:277 Subscriber: Notification.JSt.Prod-bhwtct126ig0, Content: {"notificationContentType":"ETA_INFO","topicType":"ETA","notificationPayLoad":[{"scheduledTime":"2017-12-15T13:48:00.0000000+01:00","estimatedTime":"2017-12-15T13:48:55.0000000+01:00","relatedTime":"2017-12-15T09:00:28.0000000+01:00","uniqSeqId":"444e43de-bf83-4e8b-b6bb-a84a008ac8db","info":"PositionEvent","scemid":"9MQHE44U8V"}],"subscriptionID":"86d7a0aeba864932acd7a84a008a638b"}
aeolix.component.ts?1fe6:277 Subscriber: Notification.JSt.Prod-bhwtct126ig0, Content: {"notificationContentType":"ETA_INFO","topicType":"ETA","notificationPayLoad":[{"scheduledTime":"2017-12-15T14:20:40.0000000+01:00","estimatedTime":"2017-12-15T14:22:43.0000000+01:00","relatedTime":"2017-12-15T09:00:28.0000000+01:00","uniqSeqId":"444e43de-bf83-4e8b-b6bb-a84a008ac8db","info":"PositionEvent","scemid":"AQVQSR6KZD"}],"subscriptionID":"1b20f3e87e5843e4bf80a84a008a6580"}
aeolix.component.ts?1fe6:277 Subscriber: Notification.JSt.Prod-bhwtct126ig0, Content: {"notificationContentType":"ETA_INFO","topicType":"ETA","notificationPayLoad":[{"scheduledTime":"2017-12-15T14:39:00.0000000+01:00","estimatedTime":"2017-12-15T14:41:10.0000000+01:00","relatedTime":"2017-12-15T09:00:28.0000000+01:00","uniqSeqId":"444e43de-bf83-4e8b-b6bb-a84a008ac8db","info":"PositionEvent","scemid":"C4BJ1SFUJ7"}],"subscriptionID":"ee538e18d7294f1d89d4a84a008a6598"}
aeolix.component.ts?1fe6:277 Subscriber: Notification.JSt.Prod-bhwtct126ig0, Content: {"notificationContentType":"ETA_INFO","topicType":"ETA","notificationPayLoad":[{"scheduledTime":"2017-12-15T15:22:40.0000000+01:00","estimatedTime":"2017-12-15T15:27:31.0000000+01:00","relatedTime":"2017-12-15T09:00:28.0000000+01:00","uniqSeqId":"444e43de-bf83-4e8b-b6bb-a84a008ac8db","info":"PositionEvent","scemid":"9FJ3S4I913"}],"subscriptionID":"ff0ee48ee9c44c1cb663a84a008a65be"}
aeolix.component.ts?1fe6:277 Subscriber: Notification.JSt.Prod-bhwtct126ig0, Content: {"notificationContentType":"ETA_INFO","topicType":"ETA","notificationPayLoad":[{"scheduledTime":"2017-12-15T17:33:40.0000000+01:00","estimatedTime":"2017-12-15T17:31:26.0000000+01:00","relatedTime":"2017-12-15T09:00:28.0000000+01:00","uniqSeqId":"444e43de-bf83-4e8b-b6bb-a84a008ac8db","info":"PositionEvent","scemid":"RDZHODMMIX"}],"subscriptionID":"d14ce9d1165f42359fe2a84a008a63fc"}
aeolix.component.ts?1fe6:277 Subscriber: Notification.JSt.Prod-bhwtct126ig0, Content: {"notificationContentType":"ETA_INFO","topicType":"ETA","notificationPayLoad":[{"scheduledTime":"2017-12-15T16:32:10.0000000+01:00","estimatedTime":"2017-12-15T16:22:28.0000000+01:00","relatedTime":"2017-12-15T09:00:28.0000000+01:00","uniqSeqId":"444e43de-bf83-4e8b-b6bb-a84a008ac8db","info":"PositionEvent","scemid":"U3SZY7RLM1"}],"subscriptionID":"8d83fe3009e842e3872ca84a008a65e3"}
aeolix.component.ts?1fe6:277 Subscriber: Notification.JSt.Prod-bhwtct126ig0, Content: {"notificationContentType":"ETA_INFO","topicType":"ETA","notificationPayLoad":[{"scheduledTime":"2017-12-15T16:56:00.0000000+01:00","estimatedTime":"2017-12-15T16:55:11.0000000+01:00","relatedTime":"2017-12-15T09:00:28.0000000+01:00","uniqSeqId":"444e43de-bf83-4e8b-b6bb-a84a008ac8db","info":"PositionEvent","scemid":"3JH5S6KD7D"}],"subscriptionID":"81e82957cdb3450caae8a84a008a65f1"}
aeolix.component.ts?1fe6:277 Subscriber: Notification.JSt.Prod-bhwtct126ig0, Content: {"notificationContentType":"ETA_INFO","topicType":"ETA","notificationPayLoad":[{"scheduledTime":"2017-12-15T09:43:10.0000000+01:00","estimatedTime":"2017-12-15T09:38:21.0000000+01:00","relatedTime":"2017-12-15T09:20:57.0000000+01:00","uniqSeqId":"848b4d87-f3b1-4d9d-9ed5-a84a008ae317","info":"PositionEvent","scemid":"CKRGE33S5Q"}],"subscriptionID":"4a77d7f45fb04670a454a84a008a6506"}
aeolix.component.ts?1fe6:277 Subscriber: Notification.JSt.Prod-bhwtct126ig0, Content: {"notificationContentType":"ETA_INFO","topicType":"ETA","notificationPayLoad":[{"scheduledTime":"2017-12-15T10:18:20.0000000+01:00","estimatedTime":"2017-12-15T10:18:33.0000000+01:00","relatedTime":"2017-12-15T09:20:57.0000000+01:00","uniqSeqId":"848b4d87-f3b1-4d9d-9ed5-a84a008ae317","info":"PositionEvent","scemid":"MBS87OGQGZ"}],"subscriptionID":"4f3eace0dcd74486842aa84a008a633c"}
aeolix.component.ts?1fe6:277 Subscriber: Notification.JSt.Prod-bhwtct126ig0, Content: {"notificationContentType":"ETA_INFO","topicType":"ETA","notificationPayLoad":[{"scheduledTime":"2017-12-15T12:04:30.0000000+01:00","estimatedTime":"2017-12-15T12:02:37.0000000+01:00","relatedTime":"2017-12-15T09:20:57.0000000+01:00","uniqSeqId":"848b4d87-f3b1-4d9d-9ed5-a84a008ae317","info":"PositionEvent","scemid":"ML3S23QGGP"}],"subscriptionID":"4b3ad9c01ba14af188b4a84a008a6556"}
aeolix.component.ts?1fe6:277 Subscriber: Notification.JSt.Prod-bhwtct126ig0, Content: {"notificationContentType":"ETA_INFO","topicType":"ETA","notificationPayLoad":[{"scheduledTime":"2017-12-15T11:09:10.0000000+01:00","estimatedTime":"2017-12-15T11:04:03.0000000+01:00","relatedTime":"2017-12-15T09:20:57.0000000+01:00","uniqSeqId":"848b4d87-f3b1-4d9d-9ed5-a84a008ae317","info":"PositionEvent","scemid":"T7V79NJUOB"}],"subscriptionID":"fbcba9a2af754fe8b65da84a008a6535"}
aeolix.component.ts?1fe6:277 Subscriber: Notification.JSt.Prod-bhwtct126ig0, Content: {"notificationContentType":"ETA_INFO","topicType":"ETA","notificationPayLoad":[{"scheduledTime":"2017-12-15T13:10:10.0000000+01:00","estimatedTime":"2017-12-15T13:06:55.0000000+01:00","relatedTime":"2017-12-15T09:20:57.0000000+01:00","uniqSeqId":"848b4d87-f3b1-4d9d-9ed5-a84a008ae317","info":"PositionEvent","scemid":"ZB6LXRBPAS"}],"subscriptionID":"6c9bf40a7d944a89ab4da84a008a637f"}
aeolix.component.ts?1fe6:277 Subscriber: Notification.JSt.Prod-bhwtct126ig0, Content: {"notificationContentType":"ETA_INFO","topicType":"ETA","notificationPayLoad":[{"scheduledTime":"2017-12-15T12:36:10.0000000+01:00","estimatedTime":"2017-12-15T12:35:07.0000000+01:00","relatedTime":"2017-12-15T09:20:57.0000000+01:00","uniqSeqId":"848b4d87-f3b1-4d9d-9ed5-a84a008ae317","info":"PositionEvent","scemid":"FKUJKCIH9J"}],"subscriptionID":"ad9ec5b661a440e2924ea84a008a656d"}
aeolix.component.ts?1fe6:277 Subscriber: Notification.JSt.Prod-bhwtct126ig0, Content: {"notificationContentType":"ETA_INFO","topicType":"ETA","notificationPayLoad":[{"scheduledTime":"2017-12-15T13:48:00.0000000+01:00","estimatedTime":"2017-12-15T13:48:55.0000000+01:00","relatedTime":"2017-12-15T09:20:57.0000000+01:00","uniqSeqId":"848b4d87-f3b1-4d9d-9ed5-a84a008ae317","info":"PositionEvent","scemid":"9MQHE44U8V"}],"subscriptionID":"86d7a0aeba864932acd7a84a008a638b"}
aeolix.component.ts?1fe6:277 Subscriber: Notification.JSt.Prod-bhwtct126ig0, Content: {"notificationContentType":"ETA_INFO","topicType":"ETA","notificationPayLoad":[{"scheduledTime":"2017-12-15T14:20:40.0000000+01:00","estimatedTime":"2017-12-15T14:22:43.0000000+01:00","relatedTime":"2017-12-15T09:20:57.0000000+01:00","uniqSeqId":"848b4d87-f3b1-4d9d-9ed5-a84a008ae317","info":"PositionEvent","scemid":"AQVQSR6KZD"}],"subscriptionID":"1b20f3e87e5843e4bf80a84a008a6580"}
aeolix.component.ts?1fe6:277 Subscriber: Notification.JSt.Prod-bhwtct126ig0, Content: {"notificationContentType":"ETA_INFO","topicType":"ETA","notificationPayLoad":[{"scheduledTime":"2017-12-15T14:56:30.0000000+01:00","estimatedTime":"2017-12-15T14:59:12.0000000+01:00","relatedTime":"2017-12-15T09:20:57.0000000+01:00","uniqSeqId":"848b4d87-f3b1-4d9d-9ed5-a84a008ae317","info":"PositionEvent","scemid":"BZ6AM5D5RP"}],"subscriptionID":"2451e855f1934ef29a16a84a008a63c4"}
aeolix.component.ts?1fe6:277 Subscriber: Notification.JSt.Prod-bhwtct126ig0, Content: {"notificationContentType":"ETA_INFO","topicType":"ETA","notificationPayLoad":[{"scheduledTime":"2017-12-15T14:39:00.0000000+01:00","estimatedTime":"2017-12-15T14:41:10.0000000+01:00","relatedTime":"2017-12-15T09:20:57.0000000+01:00","uniqSeqId":"848b4d87-f3b1-4d9d-9ed5-a84a008ae317","info":"PositionEvent","scemid":"C4BJ1SFUJ7"}],"subscriptionID":"ee538e18d7294f1d89d4a84a008a6598"}
aeolix.component.ts?1fe6:277 Subscriber: Notification.JSt.Prod-bhwtct126ig0, Content: {"notificationContentType":"ETA_INFO","topicType":"ETA","notificationPayLoad":[{"scheduledTime":"2017-12-15T15:22:40.0000000+01:00","estimatedTime":"2017-12-15T15:42:30.0000000+01:00","relatedTime":"2017-12-15T09:20:57.0000000+01:00","uniqSeqId":"848b4d87-f3b1-4d9d-9ed5-a84a008ae317","info":"PositionEvent","scemid":"9FJ3S4I913"}],"subscriptionID":"ff0ee48ee9c44c1cb663a84a008a65be"}
aeolix.component.ts?1fe6:277 Subscriber: Notification.JSt.Prod-bhwtct126ig0, Content: {"notificationContentType":"ETA_INFO","topicType":"ETA","notificationPayLoad":[{"scheduledTime":"2017-12-15T17:33:40.0000000+01:00","estimatedTime":"2017-12-15T17:31:27.0000000+01:00","relatedTime":"2017-12-15T09:20:57.0000000+01:00","uniqSeqId":"848b4d87-f3b1-4d9d-9ed5-a84a008ae317","info":"PositionEvent","scemid":"RDZHODMMIX"}],"subscriptionID":"d14ce9d1165f42359fe2a84a008a63fc"}
aeolix.component.ts?1fe6:277 Subscriber: Notification.JSt.Prod-bhwtct126ig0, Content: {"notificationContentType":"ETA_INFO","topicType":"ETA","notificationPayLoad":[{"scheduledTime":"2017-12-15T16:56:00.0000000+01:00","estimatedTime":"2017-12-15T16:55:10.0000000+01:00","relatedTime":"2017-12-15T09:20:57.0000000+01:00","uniqSeqId":"848b4d87-f3b1-4d9d-9ed5-a84a008ae317","info":"PositionEvent","scemid":"3JH5S6KD7D"}],"subscriptionID":"81e82957cdb3450caae8a84a008a65f1"}
aeolix.component.ts?1fe6:277 Subscriber: Notification.JSt.Prod-bhwtct126ig0, Content: {"notificationContentType":"ETA_INFO","topicType":"ETA","notificationPayLoad":[{"scheduledTime":"2017-12-15T16:32:10.0000000+01:00","estimatedTime":"2017-12-15T16:07:28.0000000+01:00","relatedTime":"2017-12-15T09:20:57.0000000+01:00","uniqSeqId":"848b4d87-f3b1-4d9d-9ed5-a84a008ae317","info":"PositionEvent","scemid":"U3SZY7RLM1"}],"subscriptionID":"8d83fe3009e842e3872ca84a008a65e3"}
aeolix.component.ts?1fe6:277 Subscriber: Notification.JSt.Prod-bhwtct126ig0, Content: {"notificationContentType":"ETA_INFO","topicType":"ETA","notificationPayLoad":[{"scheduledTime":"2017-12-15T09:43:10.0000000+01:00","estimatedTime":"2017-12-15T09:38:13.0000000+01:00","relatedTime":"2017-12-15T09:24:05.0000000+01:00","uniqSeqId":"07cf0943-e5af-4779-b59d-a84a008aee21","info":"PositionEvent","scemid":"CKRGE33S5Q"}],"subscriptionID":"4a77d7f45fb04670a454a84a008a6506"}
aeolix.component.ts?1fe6:277 Subscriber: Notification.JSt.Prod-bhwtct126ig0, Content: {"notificationContentType":"ETA_INFO","topicType":"ETA","notificationPayLoad":[{"scheduledTime":"2017-12-15T10:18:20.0000000+01:00","estimatedTime":"2017-12-15T10:18:32.0000000+01:00","relatedTime":"2017-12-15T09:24:05.0000000+01:00","uniqSeqId":"07cf0943-e5af-4779-b59d-a84a008aee21","info":"PositionEvent","scemid":"MBS87OGQGZ"}],"subscriptionID":"4f3eace0dcd74486842aa84a008a633c"}
aeolix.component.ts?1fe6:277 Subscriber: Notification.JSt.Prod-bhwtct126ig0, Content: {"notificationContentType":"ETA_INFO","topicType":"ETA","notificationPayLoad":[{"scheduledTime":"2017-12-15T12:04:30.0000000+01:00","estimatedTime":"2017-12-15T12:02:36.0000000+01:00","relatedTime":"2017-12-15T09:24:05.0000000+01:00","uniqSeqId":"07cf0943-e5af-4779-b59d-a84a008aee21","info":"PositionEvent","scemid":"ML3S23QGGP"}],"subscriptionID":"4b3ad9c01ba14af188b4a84a008a6556"}
aeolix.component.ts?1fe6:277 Subscriber: Notification.JSt.Prod-bhwtct126ig0, Content: {"notificationContentType":"ETA_INFO","topicType":"ETA","notificationPayLoad":[{"scheduledTime":"2017-12-15T11:09:10.0000000+01:00","estimatedTime":"2017-12-15T11:04:02.0000000+01:00","relatedTime":"2017-12-15T09:24:05.0000000+01:00","uniqSeqId":"07cf0943-e5af-4779-b59d-a84a008aee21","info":"PositionEvent","scemid":"T7V79NJUOB"}],"subscriptionID":"fbcba9a2af754fe8b65da84a008a6535"}
aeolix.component.ts?1fe6:277 Subscriber: Notification.JSt.Prod-bhwtct126ig0, Content: {"notificationContentType":"ETA_INFO","topicType":"ETA","notificationPayLoad":[{"scheduledTime":"2017-12-15T12:36:10.0000000+01:00","estimatedTime":"2017-12-15T12:35:07.0000000+01:00","relatedTime":"2017-12-15T09:24:05.0000000+01:00","uniqSeqId":"07cf0943-e5af-4779-b59d-a84a008aee21","info":"PositionEvent","scemid":"FKUJKCIH9J"}],"subscriptionID":"ad9ec5b661a440e2924ea84a008a656d"}
aeolix.component.ts?1fe6:277 Subscriber: Notification.JSt.Prod-bhwtct126ig0, Content: {"notificationContentType":"ETA_INFO","topicType":"ETA","notificationPayLoad":[{"scheduledTime":"2017-12-15T13:10:10.0000000+01:00","estimatedTime":"2017-12-15T13:06:56.0000000+01:00","relatedTime":"2017-12-15T09:24:05.0000000+01:00","uniqSeqId":"07cf0943-e5af-4779-b59d-a84a008aee21","info":"PositionEvent","scemid":"ZB6LXRBPAS"}],"subscriptionID":"6c9bf40a7d944a89ab4da84a008a637f"}
aeolix.component.ts?1fe6:277 Subscriber: Notification.JSt.Prod-bhwtct126ig0, Content: {"notificationContentType":"ETA_INFO","topicType":"ETA","notificationPayLoad":[{"scheduledTime":"2017-12-15T13:48:00.0000000+01:00","estimatedTime":"2017-12-15T13:48:54.0000000+01:00","relatedTime":"2017-12-15T09:24:05.0000000+01:00","uniqSeqId":"07cf0943-e5af-4779-b59d-a84a008aee21","info":"PositionEvent","scemid":"9MQHE44U8V"}],"subscriptionID":"86d7a0aeba864932acd7a84a008a638b"}
aeolix.component.ts?1fe6:277 Subscriber: Notification.JSt.Prod-bhwtct126ig0, Content: {"notificationContentType":"ETA_INFO","topicType":"ETA","notificationPayLoad":[{"scheduledTime":"2017-12-15T14:20:40.0000000+01:00","estimatedTime":"2017-12-15T14:22:42.0000000+01:00","relatedTime":"2017-12-15T09:24:05.0000000+01:00","uniqSeqId":"07cf0943-e5af-4779-b59d-a84a008aee21","info":"PositionEvent","scemid":"AQVQSR6KZD"}],"subscriptionID":"1b20f3e87e5843e4bf80a84a008a6580"}
aeolix.component.ts?1fe6:277 Subscriber: Notification.JSt.Prod-bhwtct126ig0, Content: {"notificationContentType":"ETA_INFO","topicType":"ETA","notificationPayLoad":[{"scheduledTime":"2017-12-15T14:39:00.0000000+01:00","estimatedTime":"2017-12-15T14:41:09.0000000+01:00","relatedTime":"2017-12-15T09:24:05.0000000+01:00","uniqSeqId":"07cf0943-e5af-4779-b59d-a84a008aee21","info":"PositionEvent","scemid":"C4BJ1SFUJ7"}],"subscriptionID":"ee538e18d7294f1d89d4a84a008a6598"}
aeolix.component.ts?1fe6:277 Subscriber: Notification.JSt.Prod-bhwtct126ig0, Content: {"notificationContentType":"ETA_INFO","topicType":"ETA","notificationPayLoad":[{"scheduledTime":"2017-12-15T14:56:30.0000000+01:00","estimatedTime":"2017-12-15T14:59:12.0000000+01:00","relatedTime":"2017-12-15T09:24:05.0000000+01:00","uniqSeqId":"07cf0943-e5af-4779-b59d-a84a008aee21","info":"PositionEvent","scemid":"BZ6AM5D5RP"}],"subscriptionID":"2451e855f1934ef29a16a84a008a63c4"}
aeolix.component.ts?1fe6:277 Subscriber: Notification.JSt.Prod-bhwtct126ig0, Content: {"notificationContentType":"ETA_INFO","topicType":"ETA","notificationPayLoad":[{"scheduledTime":"2017-12-15T15:22:40.0000000+01:00","estimatedTime":"2017-12-15T15:27:31.0000000+01:00","relatedTime":"2017-12-15T09:24:05.0000000+01:00","uniqSeqId":"07cf0943-e5af-4779-b59d-a84a008aee21","info":"PositionEvent","scemid":"9FJ3S4I913"}],"subscriptionID":"ff0ee48ee9c44c1cb663a84a008a65be"}
aeolix.component.ts?1fe6:277 Subscriber: Notification.JSt.Prod-bhwtct126ig0, Content: {"notificationContentType":"ETA_INFO","topicType":"ETA","notificationPayLoad":[{"scheduledTime":"2017-12-15T17:33:40.0000000+01:00","estimatedTime":"2017-12-15T17:31:27.0000000+01:00","relatedTime":"2017-12-15T09:24:05.0000000+01:00","uniqSeqId":"07cf0943-e5af-4779-b59d-a84a008aee21","info":"PositionEvent","scemid":"RDZHODMMIX"}],"subscriptionID":"d14ce9d1165f42359fe2a84a008a63fc"}
aeolix.component.ts?1fe6:277 Subscriber: Notification.JSt.Prod-bhwtct126ig0, Content: {"notificationContentType":"ETA_INFO","topicType":"ETA","notificationPayLoad":[{"scheduledTime":"2017-12-15T16:32:10.0000000+01:00","estimatedTime":"2017-12-15T15:52:28.0000000+01:00","relatedTime":"2017-12-15T09:24:05.0000000+01:00","uniqSeqId":"07cf0943-e5af-4779-b59d-a84a008aee21","info":"PositionEvent","scemid":"U3SZY7RLM1"}],"subscriptionID":"8d83fe3009e842e3872ca84a008a65e3"}
aeolix.component.ts?1fe6:277 Subscriber: Notification.JSt.Prod-bhwtct126ig0, Content: {"notificationContentType":"ETA_INFO","topicType":"ETA","notificationPayLoad":[{"scheduledTime":"2017-12-15T16:56:00.0000000+01:00","estimatedTime":"2017-12-15T16:55:10.0000000+01:00","relatedTime":"2017-12-15T09:24:05.0000000+01:00","uniqSeqId":"07cf0943-e5af-4779-b59d-a84a008aee21","info":"PositionEvent","scemid":"3JH5S6KD7D"}],"subscriptionID":"81e82957cdb3450caae8a84a008a65f1"}
aeolix.component.ts?1fe6:277 Subscriber: Notification.JSt.Prod-bhwtct126ig0, Content: {"notificationContentType":"ETA_INFO","topicType":"ETA","notificationPayLoad":[{"scheduledTime":"2017-12-15T10:18:20.0000000+01:00","estimatedTime":"2017-12-15T10:18:32.0000000+01:00","relatedTime":"2017-12-15T09:30:17.0000000+01:00","uniqSeqId":"610ea498-7ea1-4e43-8446-a84a008af6f4","info":"PositionEvent","scemid":"MBS87OGQGZ"}],"subscriptionID":"4f3eace0dcd74486842aa84a008a633c"}
aeolix.component.ts?1fe6:277 Subscriber: Notification.JSt.Prod-bhwtct126ig0, Content: {"notificationContentType":"ETA_INFO","topicType":"ETA","notificationPayLoad":[{"scheduledTime":"2017-12-15T09:43:10.0000000+01:00","estimatedTime":"2017-12-15T09:38:24.0000000+01:00","relatedTime":"2017-12-15T09:30:17.0000000+01:00","uniqSeqId":"610ea498-7ea1-4e43-8446-a84a008af6f4","info":"PositionEvent","scemid":"CKRGE33S5Q"}],"subscriptionID":"4a77d7f45fb04670a454a84a008a6506"}
aeolix.component.ts?1fe6:277 Subscriber: Notification.JSt.Prod-bhwtct126ig0, Content: {"notificationContentType":"ETA_INFO","topicType":"ETA","notificationPayLoad":[{"scheduledTime":"2017-12-15T11:09:10.0000000+01:00","estimatedTime":"2017-12-15T11:04:02.0000000+01:00","relatedTime":"2017-12-15T09:30:17.0000000+01:00","uniqSeqId":"610ea498-7ea1-4e43-8446-a84a008af6f4","info":"PositionEvent","scemid":"T7V79NJUOB"}],"subscriptionID":"fbcba9a2af754fe8b65da84a008a6535"}
aeolix.component.ts?1fe6:277 Subscriber: Notification.JSt.Prod-bhwtct126ig0, Content: {"notificationContentType":"ETA_INFO","topicType":"ETA","notificationPayLoad":[{"scheduledTime":"2017-12-15T12:04:30.0000000+01:00","estimatedTime":"2017-12-15T12:02:36.0000000+01:00","relatedTime":"2017-12-15T09:30:17.0000000+01:00","uniqSeqId":"610ea498-7ea1-4e43-8446-a84a008af6f4","info":"PositionEvent","scemid":"ML3S23QGGP"}],"subscriptionID":"4b3ad9c01ba14af188b4a84a008a6556"}
aeolix.component.ts?1fe6:277 Subscriber: Notification.JSt.Prod-bhwtct126ig0, Content: {"notificationContentType":"ETA_INFO","topicType":"ETA","notificationPayLoad":[{"scheduledTime":"2017-12-15T14:20:40.0000000+01:00","estimatedTime":"2017-12-15T14:22:42.0000000+01:00","relatedTime":"2017-12-15T09:30:17.0000000+01:00","uniqSeqId":"610ea498-7ea1-4e43-8446-a84a008af6f4","info":"PositionEvent","scemid":"AQVQSR6KZD"}],"subscriptionID":"1b20f3e87e5843e4bf80a84a008a6580"}
aeolix.component.ts?1fe6:277 Subscriber: Notification.JSt.Prod-bhwtct126ig0, Content: {"notificationContentType":"ETA_INFO","topicType":"ETA","notificationPayLoad":[{"scheduledTime":"2017-12-15T13:10:10.0000000+01:00","estimatedTime":"2017-12-15T13:06:55.0000000+01:00","relatedTime":"2017-12-15T09:30:17.0000000+01:00","uniqSeqId":"610ea498-7ea1-4e43-8446-a84a008af6f4","info":"PositionEvent","scemid":"ZB6LXRBPAS"}],"subscriptionID":"6c9bf40a7d944a89ab4da84a008a637f"}
aeolix.component.ts?1fe6:277 Subscriber: Notification.JSt.Prod-bhwtct126ig0, Content: {"notificationContentType":"ETA_INFO","topicType":"ETA","notificationPayLoad":[{"scheduledTime":"2017-12-15T13:48:00.0000000+01:00","estimatedTime":"2017-12-15T13:48:54.0000000+01:00","relatedTime":"2017-12-15T09:30:17.0000000+01:00","uniqSeqId":"610ea498-7ea1-4e43-8446-a84a008af6f4","info":"PositionEvent","scemid":"9MQHE44U8V"}],"subscriptionID":"86d7a0aeba864932acd7a84a008a638b"}
aeolix.component.ts?1fe6:277 Subscriber: Notification.JSt.Prod-bhwtct126ig0, Content: {"notificationContentType":"ETA_INFO","topicType":"ETA","notificationPayLoad":[{"scheduledTime":"2017-12-15T14:39:00.0000000+01:00","estimatedTime":"2017-12-15T14:41:09.0000000+01:00","relatedTime":"2017-12-15T09:30:17.0000000+01:00","uniqSeqId":"610ea498-7ea1-4e43-8446-a84a008af6f4","info":"PositionEvent","scemid":"C4BJ1SFUJ7"}],"subscriptionID":"ee538e18d7294f1d89d4a84a008a6598"}
aeolix.component.ts?1fe6:277 Subscriber: Notification.JSt.Prod-bhwtct126ig0, Content: {"notificationContentType":"ETA_INFO","topicType":"ETA","notificationPayLoad":[{"scheduledTime":"2017-12-15T14:56:30.0000000+01:00","estimatedTime":"2017-12-15T14:59:11.0000000+01:00","relatedTime":"2017-12-15T09:30:17.0000000+01:00","uniqSeqId":"610ea498-7ea1-4e43-8446-a84a008af6f4","info":"PositionEvent","scemid":"BZ6AM5D5RP"}],"subscriptionID":"2451e855f1934ef29a16a84a008a63c4"}
aeolix.component.ts?1fe6:277 Subscriber: Notification.JSt.Prod-bhwtct126ig0, Content: {"notificationContentType":"ETA_INFO","topicType":"ETA","notificationPayLoad":[{"scheduledTime":"2017-12-15T15:22:40.0000000+01:00","estimatedTime":"2017-12-15T15:27:30.0000000+01:00","relatedTime":"2017-12-15T09:30:17.0000000+01:00","uniqSeqId":"610ea498-7ea1-4e43-8446-a84a008af6f4","info":"PositionEvent","scemid":"9FJ3S4I913"}],"subscriptionID":"ff0ee48ee9c44c1cb663a84a008a65be"}
aeolix.component.ts?1fe6:277 Subscriber: Notification.JSt.Prod-bhwtct126ig0, Content: {"notificationContentType":"ETA_INFO","topicType":"ETA","notificationPayLoad":[{"scheduledTime":"2017-12-15T12:36:10.0000000+01:00","estimatedTime":"2017-12-15T12:35:07.0000000+01:00","relatedTime":"2017-12-15T09:30:17.0000000+01:00","uniqSeqId":"610ea498-7ea1-4e43-8446-a84a008af6f4","info":"PositionEvent","scemid":"FKUJKCIH9J"}],"subscriptionID":"ad9ec5b661a440e2924ea84a008a656d"}
aeolix.component.ts?1fe6:277 Subscriber: Notification.JSt.Prod-bhwtct126ig0, Content: {"notificationContentType":"ETA_INFO","topicType":"ETA","notificationPayLoad":[{"scheduledTime":"2017-12-15T17:33:40.0000000+01:00","estimatedTime":"2017-12-15T17:31:27.0000000+01:00","relatedTime":"2017-12-15T09:30:17.0000000+01:00","uniqSeqId":"610ea498-7ea1-4e43-8446-a84a008af6f4","info":"PositionEvent","scemid":"RDZHODMMIX"}],"subscriptionID":"d14ce9d1165f42359fe2a84a008a63fc"}
aeolix.component.ts?1fe6:277 Subscriber: Notification.JSt.Prod-bhwtct126ig0, Content: {"notificationContentType":"ETA_INFO","topicType":"ETA","notificationPayLoad":[{"scheduledTime":"2017-12-15T16:32:10.0000000+01:00","estimatedTime":"2017-12-15T15:52:27.0000000+01:00","relatedTime":"2017-12-15T09:30:17.0000000+01:00","uniqSeqId":"610ea498-7ea1-4e43-8446-a84a008af6f4","info":"PositionEvent","scemid":"U3SZY7RLM1"}],"subscriptionID":"8d83fe3009e842e3872ca84a008a65e3"}
aeolix.component.ts?1fe6:277 Subscriber: Notification.JSt.Prod-bhwtct126ig0, Content: {"notificationContentType":"ETA_INFO","topicType":"ETA","notificationPayLoad":[{"scheduledTime":"2017-12-15T16:56:00.0000000+01:00","estimatedTime":"2017-12-15T16:55:10.0000000+01:0